versioninfo
{
	"editorversion" "400"
	"editorbuild" "4715"
	"mapversion" "2"
	"formatversion" "100"
	"prefab" "0"
}
visgroups
{
}
viewsettings
{
	"bSnapToGrid" "1"
	"bShowGrid" "1"
	"bShowLogicalGrid" "0"
	"nGridSpacing" "64"
	"bShow3DGrid" "0"
}
world
{
	"id" "1"
	"mapversion" "2"
	"classname" "worldspawn"
	"skyname" "sky_day01_01"
	"maxpropscreenwidth" "-1"
	"detailvbsp" "detail.vbsp"
	"detailmaterial" "detail/detailsprites"
	solid
	{
		"id" "2"
		side
		{
			"id" "1"
			"plane" "(-1024 1024 0) (1264 1024 0) (1264 -1024 0)"
			"material" "NATURE/GRASSFLOOR002A"
			"uaxis" "[1 0 0 -429.65] 0.279297"
			"vaxis" "[0 -1 0 0] 0.25"
			"rotation" "0"
			"lightmapscale" "16"
			"smoothing_groups" "0"
		}
		side
		{
			"id" "2"
			"plane" "(-1024 -1024 -64) (1264 -1024 -64) (1264 1024 -64)"
			"material" "NATURE/GRASSFLOOR002A"
			"uaxis" "[1 0 0 -429.65] 0.279297"
			"vaxis" "[0 -1 0 0] 0.25"
			"rotation" "0"
			"lightmapscale" "16"
			"smoothing_groups" "0"
		}
		side
		{
			"id" "3"
			"plane" "(-1024 1024 0) (-1024 -1024 0) (-1024 -1024 -64)"
			"material" "NATURE/GRASSFLOOR002A"
			"uaxis" "[0 1 0 0] 0.25"
			"vaxis" "[0 0 -1 0] 0.25"
			"rotation" "0"
			"lightmapscale" "16"
			"smoothing_groups" "0"
		}
		side
		{
			"id" "4"
			"plane" "(1264 1024 -64) (1264 -1024 -64) (1264 -1024 0)"
			"material" "NATURE/GRASSFLOOR002A"
			"uaxis" "[0 1 0 0] 0.25"
			"vaxis" "[0 0 -1 0] 0.25"
			"rotation" "0"
			"lightmapscale" "16"
			"smoothing_groups" "0"
		}
		side
		{
			"id" "5"
			"plane" "(1264 1024 0) (-1024 1024 0) (-1024 1024 -64)"
			"material" "NATURE/GRASSFLOOR002A"
			"uaxis" "[1 0 0 -429.65] 0.279297"
			"vaxis" "[0 0 -1 0] 0.25"
			"rotation" "0"
			"lightmapscale" "16"
			"smoothing_groups" "0"
		}
		side
		{
			"id" "6"
			"plane" "(1264 -1024 -64) (-1024 -1024 -64) (-1024 -1024 0)"
			"material" "NATURE/GRASSFLOOR002A"
			"uaxis" "[1 0 0 -429.65] 0.279297"
			"vaxis" "[0 0 -1 0] 0.25"
			"rotation" "0"
			"lightmapscale" "16"
			"smoothing_groups" "0"
		}
		editor
		{
			"color" "0 180 133"
			"visgroupshown" "1"
			"visgroupautoshown" "1"
		}
	}
	solid
	{
		"id" "17"
		side
		{
			"id" "18"
			"plane" "(256 -1024 224) (256 64 224) (272 64 224)"
			"material" "BRICK/BRICKWALL003A"
			"uaxis" "[1 0 0 0] 0.25"
			"vaxis" "[0 -1 0 0] 0.25"
			"rotation" "0"
			"lightmapscale" "16"
			"smoothing_groups" "0"
		}
		side
		{
			"id" "17"
			"plane" "(256 64 0) (256 -1024 0) (272 -1024 0)"
			"material" "BRICK/BRICKWALL003A"
			"uaxis" "[1 0 0 0] 0.25"
			"vaxis" "[0 -1 0 0] 0.25"
			"rotation" "0"
			"lightmapscale" "16"
			"smoothing_groups" "0"
		}
		side
		{
			"id" "16"
			"plane" "(256 -1024 0) (256 64 0) (256 64 224)"
			"material" "BRICK/BRICKWALL003A"
			"uaxis" "[0 1 0 0] 0.25"
			"vaxis" "[0 0 -1 0] 0.4375"
			"rotation" "0"
			"lightmapscale" "16"
			"smoothing_groups" "0"
		}
		side
		{
			"id" "15"
			"plane" "(272 64 0) (272 -1024 0) (272 -1024 224)"
			"material" "BRICK/BRICKWALL003A"
			"uaxis" "[0 1 0 0] 0.25"
			"vaxis" "[0 0 -1 0] 0.4375"
			"rotation" "0"
			"lightmapscale" "16"
			"smoothing_groups" "0"
		}
		side
		{
			"id" "14"
			"plane" "(272 -1024 0) (256 -1024 0) (256 -1024 224)"
			"material" "BRICK/BRICKWALL003A"
			"uaxis" "[1 0 0 0] 0.25"
			"vaxis" "[0 0 -1 0] 0.4375"
			"rotation" "0"
			"lightmapscale" "16"
			"smoothing_groups" "0"
		}
		side
		{
			"id" "13"
			"plane" "(256 64 0) (272 64 0) (272 64 224)"
			"material" "BRICK/BRICKWALL003A"
			"uaxis" "[1 0 0 0] 0.25"
			"vaxis" "[0 0 -1 0] 0.25"
			"rotation" "0"
			"lightmapscale" "16"
			"smoothing_groups" "0"
		}
		editor
		{
			"color" "0 186 211"
			"visgroupshown" "1"
			"visgroupautoshown" "1"
		}
	}
	solid
	{
		"id" "26"
		side
		{
			"id" "54"
			"plane" "(256 240 224) (256 1024 224) (272 1024 224)"
			"material" "BRICK/BRICKWALL003A"
			"uaxis" "[1 0 0 0] 0.25"
			"vaxis" "[0 -1 0 0] 0.25"
			"rotation" "0"
			"lightmapscale" "16"
			"smoothing_groups" "0"
		}
		side
		{
			"id" "53"
			"plane" "(256 1024 0) (256 240 0) (272 240 0)"
			"material" "BRICK/BRICKWALL003A"
			"uaxis" "[1 0 0 0] 0.25"
			"vaxis" "[0 -1 0 0] 0.25"
			"rotation" "0"
			"lightmapscale" "16"
			"smoothing_groups" "0"
		}
		side
		{
			"id" "52"
			"plane" "(256 240 0) (256 1024 0) (256 1024 224)"
			"material" "BRICK/BRICKWALL003A"
			"uaxis" "[0 1 0 0] 0.25"
			"vaxis" "[0 0 -1 0] 0.4375"
			"rotation" "0"
			"lightmapscale" "16"
			"smoothing_groups" "0"
		}
		side
		{
			"id" "51"
			"plane" "(272 1024 0) (272 240 0) (272 240 224)"
			"material" "BRICK/BRICKWALL003A"
			"uaxis" "[0 1 0 0] 0.25"
			"vaxis" "[0 0 -1 0] 0.4375"
			"rotation" "0"
			"lightmapscale" "16"
			"smoothing_groups" "0"
		}
		side
		{
			"id" "50"
			"plane" "(256 1024 0) (272 1024 0) (272 1024 224)"
			"material" "BRICK/BRICKWALL003A"
			"uaxis" "[1 0 0 0] 0.25"
			"vaxis" "[0 0 -1 0] 0.4375"
			"rotation" "0"
			"lightmapscale" "16"
			"smoothing_groups" "0"
		}
		side
		{
			"id" "49"
			"plane" "(272 240 0) (256 240 0) (256 240 224)"
			"material" "BRICK/BRICKWALL003A"
			"uaxis" "[1 0 0 0] 0.25"
			"vaxis" "[0 0 -1 0] 0.25"
			"rotation" "0"
			"lightmapscale" "16"
			"smoothing_groups" "0"
		}
		editor
		{
			"color" "0 186 211"
			"visgroupshown" "1"
			"visgroupautoshown" "1"
		}
	}
	solid
	{
		"id" "60"
		side
		{
			"id" "72"
			"plane" "(256 240 0) (256 64 0) (272 64 0)"
			"material" "BRICK/BRICKWALL003A"
			"uaxis" "[1 0 0 0] 0.25"
			"vaxis" "[0 -1 0 0] 0.25"
			"rotation" "0"
			"lightmapscale" "16"
			"smoothing_groups" "0"
		}
		side
		{
			"id" "71"
			"plane" "(256 64 80) (256 64 0) (256 240 0)"
			"material" "BRICK/BRICKWALL003A"
			"uaxis" "[0 1 0 0] 0.25"
			"vaxis" "[0 0 -1 0] 0.4375"
			"rotation" "0"
			"lightmapscale" "16"
			"smoothing_groups" "0"
		}
		side
		{
			"id" "70"
			"plane" "(272 240 80) (272 240 0) (272 64 0)"
			"material" "BRICK/BRICKWALL003A"
			"uaxis" "[0 1 0 0] 0.25"
			"vaxis" "[0 0 -1 0] 0.4375"
			"rotation" "0"
			"lightmapscale" "16"
			"smoothing_groups" "0"
		}
		side
		{
			"id" "69"
			"plane" "(272 64 80) (272 64 0) (256 64 0)"
			"material" "BRICK/BRICKWALL003A"
			"uaxis" "[1 0 0 0] 0.25"
			"vaxis" "[0 0 -1 0] 0.25"
			"rotation" "0"
			"lightmapscale" "16"
			"smoothing_groups" "0"
		}
		side
		{
			"id" "68"
			"plane" "(256 240 80) (256 240 0) (272 240 0)"
			"material" "BRICK/BRICKWALL003A"
			"uaxis" "[1 0 0 0] 0.25"
			"vaxis" "[0 0 -1 0] 0.25"
			"rotation" "0"
			"lightmapscale" "16"
			"smoothing_groups" "0"
		}
		side
		{
			"id" "67"
			"plane" "(256 64 80) (256 240 80) (272 240 80)"
			"material" "BRICK/BRICKWALL003A"
			"uaxis" "[1 0 0 0] 0.25"
			"vaxis" "[0 -1 0 0] 0.25"
			"rotation" "0"
			"lightmapscale" "16"
			"smoothing_groups" "0"
		}
		editor
		{
			"color" "0 186 211"
			"visgroupshown" "1"
			"visgroupautoshown" "1"
		}
	}
	solid
	{
		"id" "62"
		side
		{
			"id" "84"
			"plane" "(256 64 224) (256 240 224) (272 240 224)"
			"material" "BRICK/BRICKWALL003A"
			"uaxis" "[1 0 0 0] 0.25"
			"vaxis" "[0 -1 0 0] 0.25"
			"rotation" "0"
			"lightmapscale" "16"
			"smoothing_groups" "0"
		}
		side
		{
			"id" "83"
			"plane" "(256 240 176) (256 240 224) (256 64 224)"
			"material" "BRICK/BRICKWALL003A"
			"uaxis" "[0 1 0 0] 0.25"
			"vaxis" "[0 0 -1 0] 0.4375"
			"rotation" "0"
			"lightmapscale" "16"
			"smoothing_groups" "0"
		}
		side
		{
			"id" "82"
			"plane" "(272 64 176) (272 64 224) (272 240 224)"
			"material" "BRICK/BRICKWALL003A"
			"uaxis" "[0 1 0 0] 0.25"
			"vaxis" "[0 0 -1 0] 0.4375"
			"rotation" "0"
			"lightmapscale" "16"
			"smoothing_groups" "0"
		}
		side
		{
			"id" "81"
			"plane" "(256 64 176) (256 64 224) (272 64 224)"
			"material" "BRICK/BRICKWALL003A"
			"uaxis" "[1 0 0 0] 0.25"
			"vaxis" "[0 0 -1 0] 0.25"
			"rotation" "0"
			"lightmapscale" "16"
			"smoothing_groups" "0"
		}
		side
		{
			"id" "80"
			"plane" "(272 240 176) (272 240 224) (256 240 224)"
			"material" "BRICK/BRICKWALL003A"
			"uaxis" "[1 0 0 0] 0.25"
			"vaxis" "[0 0 -1 0] 0.25"
			"rotation" "0"
			"lightmapscale" "16"
			"smoothing_groups" "0"
		}
		side
		{
			"id" "79"
			"plane" "(256 240 176) (256 64 176) (272 64 176)"
			"material" "BRICK/BRICKWALL003A"
			"uaxis" "[1 0 0 0] 0.25"
			"vaxis" "[0 -1 0 0] 0.25"
			"rotation" "0"
			"lightmapscale" "16"
			"smoothing_groups" "0"
		}
		editor
		{
			"color" "0 186 211"
			"visgroupshown" "1"
			"visgroupautoshown" "1"
		}
	}
	solid
	{
		"id" "79"
		side
		{
			"id" "108"
			"plane" "(-1088 1088 1984) (1344 1088 1984) (1344 -1088 1984)"
			"material" "TOOLS/TOOLSSKYBOX"
			"uaxis" "[1 0 0 0] 0.25"
			"vaxis" "[0 -1 0 0] 0.25"
			"rotation" "0"
			"lightmapscale" "16"
			"smoothing_groups" "0"
		}
		side
		{
			"id" "107"
			"plane" "(-1088 1088 1984) (-1088 -1088 1984) (-1088 -1088 -128)"
			"material" "TOOLS/TOOLSSKYBOX"
			"uaxis" "[0 1 0 0] 0.25"
			"vaxis" "[0 0 -1 0] 0.25"
			"rotation" "0"
			"lightmapscale" "16"
			"smoothing_groups" "0"
		}
		side
		{
			"id" "106"
			"plane" "(1344 1088 -128) (1344 -1088 -128) (1344 -1088 1984)"
			"material" "TOOLS/TOOLSSKYBOX"
			"uaxis" "[0 1 0 0] 0.25"
			"vaxis" "[0 0 -1 0] 0.25"
			"rotation" "0"
			"lightmapscale" "16"
			"smoothing_groups" "0"
		}
		side
		{
			"id" "105"
			"plane" "(1344 1088 1984) (-1088 1088 1984) (-1088 1088 -128)"
			"material" "TOOLS/TOOLSSKYBOX"
			"uaxis" "[1 0 0 0] 0.25"
			"vaxis" "[0 0 -1 0] 0.25"
			"rotation" "0"
			"lightmapscale" "16"
			"smoothing_groups" "0"
		}
		side
		{
			"id" "104"
			"plane" "(1344 -1088 -128) (-1088 -1088 -128) (-1088 -1088 1984)"
			"material" "TOOLS/TOOLSSKYBOX"
			"uaxis" "[1 0 0 0] 0.25"
			"vaxis" "[0 0 -1 0] 0.25"
			"rotation" "0"
			"lightmapscale" "16"
			"smoothing_groups" "0"
		}
		side
		{
			"id" "103"
			"plane" "(1342 -1086 1982) (1342 1086 1982) (-1086 1086 1982)"
			"material" "TOOLS/TOOLSSKYBOX"
			"uaxis" "[1 0 0 0] 0.25"
			"vaxis" "[0 -1 0 0] 0.25"
			"rotation" "0"
			"lightmapscale" "16"
			"smoothing_groups" "0"
		}
		editor
		{
			"color" "220 220 220"
			"groupid" "91"
			"visgroupshown" "1"
			"visgroupautoshown" "1"
		}
	}
	solid
	{
		"id" "81"
		side
		{
			"id" "114"
			"plane" "(-1088 -1088 -128) (1344 -1088 -128) (1344 1088 -128)"
			"material" "TOOLS/TOOLSSKYBOX"
			"uaxis" "[1 0 0 0] 0.25"
			"vaxis" "[0 -1 0 0] 0.25"
			"rotation" "0"
			"lightmapscale" "16"
			"smoothing_groups" "0"
		}
		side
		{
			"id" "113"
			"plane" "(-1088 1088 1984) (-1088 -1088 1984) (-1088 -1088 -128)"
			"material" "TOOLS/TOOLSSKYBOX"
			"uaxis" "[0 1 0 0] 0.25"
			"vaxis" "[0 0 -1 0] 0.25"
			"rotation" "0"
			"lightmapscale" "16"
			"smoothing_groups" "0"
		}
		side
		{
			"id" "112"
			"plane" "(1344 1088 -128) (1344 -1088 -128) (1344 -1088 1984)"
			"material" "TOOLS/TOOLSSKYBOX"
			"uaxis" "[0 1 0 0] 0.25"
			"vaxis" "[0 0 -1 0] 0.25"
			"rotation" "0"
			"lightmapscale" "16"
			"smoothing_groups" "0"
		}
		side
		{
			"id" "111"
			"plane" "(1344 1088 1984) (-1088 1088 1984) (-1088 1088 -128)"
			"material" "TOOLS/TOOLSSKYBOX"
			"uaxis" "[1 0 0 0] 0.25"
			"vaxis" "[0 0 -1 0] 0.25"
			"rotation" "0"
			"lightmapscale" "16"
			"smoothing_groups" "0"
		}
		side
		{
			"id" "110"
			"plane" "(1344 -1088 -128) (-1088 -1088 -128) (-1088 -1088 1984)"
			"material" "TOOLS/TOOLSSKYBOX"
			"uaxis" "[1 0 0 0] 0.25"
			"vaxis" "[0 0 -1 0] 0.25"
			"rotation" "0"
			"lightmapscale" "16"
			"smoothing_groups" "0"
		}
		side
		{
			"id" "109"
			"plane" "(1342 1086 -126) (1342 -1086 -126) (-1086 -1086 -126)"
			"material" "TOOLS/TOOLSSKYBOX"
			"uaxis" "[1 0 0 0] 0.25"
			"vaxis" "[0 -1 0 0] 0.25"
			"rotation" "0"
			"lightmapscale" "16"
			"smoothing_groups" "0"
		}
		editor
		{
			"color" "220 220 220"
			"groupid" "91"
			"visgroupshown" "1"
			"visgroupautoshown" "1"
		}
	}
	solid
	{
		"id" "83"
		side
		{
			"id" "120"
			"plane" "(-1088 1088 1984) (-1088 -1088 1984) (-1088 -1088 -128)"
			"material" "TOOLS/TOOLSSKYBOX"
			"uaxis" "[0 1 0 0] 0.25"
			"vaxis" "[0 0 -1 0] 0.25"
			"rotation" "0"
			"lightmapscale" "16"
			"smoothing_groups" "0"
		}
		side
		{
			"id" "119"
			"plane" "(1344 1088 1984) (-1088 1088 1984) (-1088 1088 -128)"
			"material" "TOOLS/TOOLSSKYBOX"
			"uaxis" "[1 0 0 0] 0.25"
			"vaxis" "[0 0 -1 0] 0.25"
			"rotation" "0"
			"lightmapscale" "16"
			"smoothing_groups" "0"
		}
		side
		{
			"id" "118"
			"plane" "(1344 -1088 -128) (-1088 -1088 -128) (-1088 -1088 1984)"
			"material" "TOOLS/TOOLSSKYBOX"
			"uaxis" "[1 0 0 0] 0.25"
			"vaxis" "[0 0 -1 0] 0.25"
			"rotation" "0"
			"lightmapscale" "16"
			"smoothing_groups" "0"
		}
		side
		{
			"id" "117"
			"plane" "(-1086 1086 1982) (1342 1086 1982) (1342 -1086 1982)"
			"material" "TOOLS/TOOLSSKYBOX"
			"uaxis" "[1 0 0 0] 0.25"
			"vaxis" "[0 -1 0 0] 0.25"
			"rotation" "0"
			"lightmapscale" "16"
			"smoothing_groups" "0"
		}
		side
		{
			"id" "116"
			"plane" "(-1086 -1086 -126) (1342 -1086 -126) (1342 1086 -126)"
			"material" "TOOLS/TOOLSSKYBOX"
			"uaxis" "[1 0 0 0] 0.25"
			"vaxis" "[0 -1 0 0] 0.25"
			"rotation" "0"
			"lightmapscale" "16"
			"smoothing_groups" "0"
		}
		side
		{
			"id" "115"
			"plane" "(-1086 -1086 -126) (-1086 -1086 1982) (-1086 1086 1982)"
			"material" "TOOLS/TOOLSSKYBOX"
			"uaxis" "[0 1 0 0] 0.25"
			"vaxis" "[0 0 -1 0] 0.25"
			"rotation" "0"
			"lightmapscale" "16"
			"smoothing_groups" "0"
		}
		editor
		{
			"color" "220 220 220"
			"groupid" "91"
			"visgroupshown" "1"
			"visgroupautoshown" "1"
		}
	}
	solid
	{
		"id" "85"
		side
		{
			"id" "126"
			"plane" "(1344 1088 -128) (1344 -1088 -128) (1344 -1088 1984)"
			"material" "TOOLS/TOOLSSKYBOX"
			"uaxis" "[0 1 0 0] 0.25"
			"vaxis" "[0 0 -1 0] 0.25"
			"rotation" "0"
			"lightmapscale" "16"
			"smoothing_groups" "0"
		}
		side
		{
			"id" "125"
			"plane" "(1344 1088 1984) (-1088 1088 1984) (-1088 1088 -128)"
			"material" "TOOLS/TOOLSSKYBOX"
			"uaxis" "[1 0 0 0] 0.25"
			"vaxis" "[0 0 -1 0] 0.25"
			"rotation" "0"
			"lightmapscale" "16"
			"smoothing_groups" "0"
		}
		side
		{
			"id" "124"
			"plane" "(1344 -1088 -128) (-1088 -1088 -128) (-1088 -1088 1984)"
			"material" "TOOLS/TOOLSSKYBOX"
			"uaxis" "[1 0 0 0] 0.25"
			"vaxis" "[0 0 -1 0] 0.25"
			"rotation" "0"
			"lightmapscale" "16"
			"smoothing_groups" "0"
		}
		side
		{
			"id" "123"
			"plane" "(-1086 1086 1982) (1342 1086 1982) (1342 -1086 1982)"
			"material" "TOOLS/TOOLSSKYBOX"
			"uaxis" "[1 0 0 0] 0.25"
			"vaxis" "[0 -1 0 0] 0.25"
			"rotation" "0"
			"lightmapscale" "16"
			"smoothing_groups" "0"
		}
		side
		{
			"id" "122"
			"plane" "(-1086 -1086 -126) (1342 -1086 -126) (1342 1086 -126)"
			"material" "TOOLS/TOOLSSKYBOX"
			"uaxis" "[1 0 0 0] 0.25"
			"vaxis" "[0 -1 0 0] 0.25"
			"rotation" "0"
			"lightmapscale" "16"
			"smoothing_groups" "0"
		}
		side
		{
			"id" "121"
			"plane" "(1342 -1086 1982) (1342 -1086 -126) (1342 1086 -126)"
			"material" "TOOLS/TOOLSSKYBOX"
			"uaxis" "[0 1 0 0] 0.25"
			"vaxis" "[0 0 -1 0] 0.25"
			"rotation" "0"
			"lightmapscale" "16"
			"smoothing_groups" "0"
		}
		editor
		{
			"color" "220 220 220"
			"groupid" "91"
			"visgroupshown" "1"
			"visgroupautoshown" "1"
		}
	}
	solid
	{
		"id" "87"
		side
		{
			"id" "132"
			"plane" "(1344 1088 1984) (-1088 1088 1984) (-1088 1088 -128)"
			"material" "TOOLS/TOOLSSKYBOX"
			"uaxis" "[1 0 0 0] 0.25"
			"vaxis" "[0 0 -1 0] 0.25"
			"rotation" "0"
			"lightmapscale" "16"
			"smoothing_groups" "0"
		}
		side
		{
			"id" "131"
			"plane" "(-1086 1086 1982) (1342 1086 1982) (1342 -1086 1982)"
			"material" "TOOLS/TOOLSSKYBOX"
			"uaxis" "[1 0 0 0] 0.25"
			"vaxis" "[0 -1 0 0] 0.25"
			"rotation" "0"
			"lightmapscale" "16"
			"smoothing_groups" "0"
		}
		side
		{
			"id" "130"
			"plane" "(-1086 -1086 -126) (1342 -1086 -126) (1342 1086 -126)"
			"material" "TOOLS/TOOLSSKYBOX"
			"uaxis" "[1 0 0 0] 0.25"
			"vaxis" "[0 -1 0 0] 0.25"
			"rotation" "0"
			"lightmapscale" "16"
			"smoothing_groups" "0"
		}
		side
		{
			"id" "129"
			"plane" "(-1086 1086 1982) (-1086 -1086 1982) (-1086 -1086 -126)"
			"material" "TOOLS/TOOLSSKYBOX"
			"uaxis" "[0 1 0 0] 0.25"
			"vaxis" "[0 0 -1 0] 0.25"
			"rotation" "0"
			"lightmapscale" "16"
			"smoothing_groups" "0"
		}
		side
		{
			"id" "128"
			"plane" "(1342 1086 -126) (1342 -1086 -126) (1342 -1086 1982)"
			"material" "TOOLS/TOOLSSKYBOX"
			"uaxis" "[0 1 0 0] 0.25"
			"vaxis" "[0 0 -1 0] 0.25"
			"rotation" "0"
			"lightmapscale" "16"
			"smoothing_groups" "0"
		}
		side
		{
			"id" "127"
			"plane" "(-1086 1086 -126) (-1086 1086 1982) (1342 1086 1982)"
			"material" "TOOLS/TOOLSSKYBOX"
			"uaxis" "[1 0 0 0] 0.25"
			"vaxis" "[0 0 -1 0] 0.25"
			"rotation" "0"
			"lightmapscale" "16"
			"smoothing_groups" "0"
		}
		editor
		{
			"color" "220 220 220"
			"groupid" "91"
			"visgroupshown" "1"
			"visgroupautoshown" "1"
		}
	}
	solid
	{
		"id" "89"
		side
		{
			"id" "138"
			"plane" "(1344 -1088 -128) (-1088 -1088 -128) (-1088 -1088 1984)"
			"material" "TOOLS/TOOLSSKYBOX"
			"uaxis" "[1 0 0 0] 0.25"
			"vaxis" "[0 0 -1 0] 0.25"
			"rotation" "0"
			"lightmapscale" "16"
			"smoothing_groups" "0"
		}
		side
		{
			"id" "137"
			"plane" "(-1086 1086 1982) (1342 1086 1982) (1342 -1086 1982)"
			"material" "TOOLS/TOOLSSKYBOX"
			"uaxis" "[1 0 0 0] 0.25"
			"vaxis" "[0 -1 0 0] 0.25"
			"rotation" "0"
			"lightmapscale" "16"
			"smoothing_groups" "0"
		}
		side
		{
			"id" "136"
			"plane" "(-1086 -1086 -126) (1342 -1086 -126) (1342 1086 -126)"
			"material" "TOOLS/TOOLSSKYBOX"
			"uaxis" "[1 0 0 0] 0.25"
			"vaxis" "[0 -1 0 0] 0.25"
			"rotation" "0"
			"lightmapscale" "16"
			"smoothing_groups" "0"
		}
		side
		{
			"id" "135"
			"plane" "(-1086 1086 1982) (-1086 -1086 1982) (-1086 -1086 -126)"
			"material" "TOOLS/TOOLSSKYBOX"
			"uaxis" "[0 1 0 0] 0.25"
			"vaxis" "[0 0 -1 0] 0.25"
			"rotation" "0"
			"lightmapscale" "16"
			"smoothing_groups" "0"
		}
		side
		{
			"id" "134"
			"plane" "(1342 1086 -126) (1342 -1086 -126) (1342 -1086 1982)"
			"material" "TOOLS/TOOLSSKYBOX"
			"uaxis" "[0 1 0 0] 0.25"
			"vaxis" "[0 0 -1 0] 0.25"
			"rotation" "0"
			"lightmapscale" "16"
			"smoothing_groups" "0"
		}
		side
		{
			"id" "133"
			"plane" "(-1086 -1086 1982) (-1086 -1086 -126) (1342 -1086 -126)"
			"material" "TOOLS/TOOLSSKYBOX"
			"uaxis" "[1 0 0 0] 0.25"
			"vaxis" "[0 0 -1 0] 0.25"
			"rotation" "0"
			"lightmapscale" "16"
			"smoothing_groups" "0"
		}
		editor
		{
			"color" "220 220 220"
			"groupid" "91"
			"visgroupshown" "1"
			"visgroupautoshown" "1"
		}
	}
	group
	{
		"id" "91"
		editor
		{
			"color" "220 220 220"
			"visgroupshown" "1"
			"visgroupautoshown" "1"
		}
	}
}
entity
{
	"id" "3"
	"classname" "info_player_deathmatch"
	"angles" "0 0 0"
	"origin" "0 0 0"
	editor
	{
		"color" "220 30 220"
		"visgroupshown" "1"
		"visgroupautoshown" "1"
		"logicalpos" "[0 500]"
	}
}
entity
{
	"id" "68"
	"classname" "func_dustmotes"
	"Alpha" "255"
	"Color" "255 255 255"
	"DistMax" "1024"
	"Frozen" "0"
	"LifetimeMax" "5"
	"LifetimeMin" "3"
	"SizeMax" "20"
	"SizeMin" "10"
	"SpawnRate" "40"
	"SpeedMax" "13"
	"StartDisabled" "0"
	solid
	{
		"id" "63"
		side
		{
			"id" "96"
			"plane" "(640 64 0) (256 64 176) (256 240 176)"
			"material" "TOOLS/TOOLSTRIGGER"
			"uaxis" "[1 0 0 0] 0.25"
			"vaxis" "[0 -1 0 0] 0.25"
			"rotation" "0"
			"lightmapscale" "16"
			"smoothing_groups" "0"
		}
		side
		{
			"id" "95"
			"plane" "(480 240 0) (256 240 80) (256 64 80)"
			"material" "TOOLS/TOOLSTRIGGER"
			"uaxis" "[1 0 0 0] 0.25"
			"vaxis" "[0 -1 0 0] 0.25"
			"rotation" "0"
			"lightmapscale" "16"
			"smoothing_groups" "0"
		}
		side
		{
			"id" "94"
			"plane" "(256 64 80) (256 240 80) (256 240 176)"
			"material" "TOOLS/TOOLSTRIGGER"
			"uaxis" "[0 1 0 0] 0.25"
			"vaxis" "[0 0 -1 0] 0.25"
			"rotation" "0"
			"lightmapscale" "16"
			"smoothing_groups" "0"
		}
		side
		{
			"id" "93"
			"plane" "(640 64 0) (640 240 0) (480 240 0)"
			"material" "TOOLS/TOOLSTRIGGER"
			"uaxis" "[1 0 0 0] 0.25"
			"vaxis" "[0 -1 0 0] 0.25"
			"rotation" "0"
			"lightmapscale" "16"
			"smoothing_groups" "0"
		}
		side
		{
			"id" "92"
			"plane" "(256 240 80) (480 240 0) (640 240 0)"
			"material" "TOOLS/TOOLSTRIGGER"
			"uaxis" "[1 0 0 0] 0.25"
			"vaxis" "[0 0 -1 0] 0.25"
			"rotation" "0"
			"lightmapscale" "16"
			"smoothing_groups" "0"
		}
		side
		{
			"id" "91"
			"plane" "(256 64 176) (640 64 0) (480 64 0)"
			"material" "TOOLS/TOOLSTRIGGER"
			"uaxis" "[1 0 0 0] 0.25"
			"vaxis" "[0 0 -1 0] 0.25"
			"rotation" "0"
			"lightmapscale" "16"
			"smoothing_groups" "0"
		}
		editor
		{
			"color" "220 30 220"
			"visgroupshown" "1"
			"visgroupautoshown" "1"
		}
	}
	editor
	{
		"color" "220 30 220"
		"visgroupshown" "1"
		"visgroupautoshown" "1"
		"logicalpos" "[0 8000]"
	}
}
entity
{
	"id" "92"
	"classname" "light_environment"
	"_ambient" "172 196 204 100"
	"_ambientHDR" "-1 -1 -1 1"
	"_AmbientScaleHDR" "1"
	"_light" "255 255 249 448"
	"_lightHDR" "-1 -1 -1 1"
	"_lightscaleHDR" "1"
	"angles" "0 0 0"
	"pitch" "-45"
	"origin" "654.487 -64.643 9"
	editor
	{
		"color" "220 30 220"
		"visgroupshown" "1"
		"visgroupautoshown" "1"
		"logicalpos" "[0 9500]"
	}
}
cameras
{
	"activecamera" "-1"
}
cordon
{
	"mins" "(-1024 -1024 -1024)"
	"maxs" "(1024 1024 1024)"
	"active" "0"
}
